{
  "products": [
    {
      "availability": {
        "from": "2025-01-30T23:00:00Z",
        "to": null
      },
      "itemAvailability": "https://schema.org/InStock",
      "price": 92.5,
      "seo": [
        "ALEPH Steel Phalanx Sectorial Pack",
        "buy ALEPH Steel Phalanx Sectorial Pack"
      ],
      "shortname": "Steel Phalanx Action Pack",
      "reference": "280888-1149",
      "labels": [],
      "outstock": false,
      "rating": {
        "value": 0.0,
        "votes": 0
      },
      "slug": "steel-phalanx-action-pack",
      "preorder": null,
      "category": {
        "cat": "miniatures",
        "game": "infinity",
        "type": "wargames"
      },
      "img": {
        "nextgen": true,
        "front": {
          "title": null,
          "img": "steel-phalanx-action-pack.png",
          "description": ""
        }
      },
      "meta": {
        "groups": [],
        "options": []
      }
    },
    {
      "availability": {
        "from": "2026-06-02T22:00:00Z",
        "to": null
      },
      "itemAvailability": "https://schema.org/OutOfStock",
      "price": 19.0,
      "seo": [
        "Death Song",
        "Gabriel Miller",
        "Winged Hussar Publishing",
        "novel",
        "books"
      ],
      "shortname": "Death Song  ",
      "reference": "WHP-005",
      "labels": [],
      "outstock": true,
      "rating": {
        "value": 0.0,
        "votes": 0
      },
      "slug": "death-song",
      "preorder": null,
      "category": {
        "cat": "books",
        "game": "infinity",
        "type": "wargames"
      },
      "img": {
        "nextgen": true,
        "front": {
          "title": null,
          "img": "death-song.png",
          "description": ""
        }
      },
      "meta": {
        "groups": [],
        "options": []
      }
    },
    {
      "availability": {
        "from": "2024-07-15T10:00:00Z",
        "to": null
      },
      "itemAvailability": "https://schema.org/InStock",
      "price": 13.5,
      "seo": [
        "55mm Scenery Bases, Epsilon Series",
        "buy 55mm Scenery Bases, Epsilon Series"
      ],
      "shortname": "55mm Scenery Bases, Epsilon Series",
      "reference": "285090-1092",
      "labels": [],
      "outstock": false,
      "rating": {
        "value": 0.0,
        "votes": 0
      },
      "slug": "55mm-scenery-bases-epsilon-series",
      "preorder": null,
      "category": {
        "cat": "accesories",
        "game": "wargame",
        "type": "infinity"
      },
      "img": {
        "nextgen": true,
        "front": {
          "title": null,
          "img": "55mm-scenery-bases-epsilon-series.png",
          "description": ""
        }
      },
      "meta": {
        "groups": [],
        "options": []
      }
    }
  ],
  "pages": 24.0,
  "currentPage": 1,
  "total": 283
}
